simulation/qsim/contadorUpDown.msim.vcd
$comment
	File created using the following command:
		vcd file contadorUpDown.msim.vcd -direction
$end
$date
	Sun Mar 11 00:32:07 2018
$end
$version
	ModelSim Version 10.1d
$end
$timescale
	1ps
$end
$scope module contador7seg_vlg_vec_tst $end
$var reg 1 ! clk $end
$var reg 7 " treg_F [6:0] $end
$var reg 4 # treg_Q [3:0] $end
$var reg 1 $ rst $end
$var reg 1 % updown $end
$var wire 1 & F [6] $end
$var wire 1 ' F [5] $end
$var wire 1 ( F [4] $end
$var wire 1 ) F [3] $end
$var wire 1 * F [2] $end
$var wire 1 + F [1] $end
$var wire 1 , F [0] $end
$var wire 1 - Q [3] $end
$var wire 1 . Q [2] $end
$var wire 1 / Q [1] $end
$var wire 1 0 Q [0] $end
$var wire 1 1 sampler $end
$scope module i1 $end
$var wire 1 2 gnd $end
$var wire 1 3 vcc $end
$var wire 1 4 unknown $end
$var tri1 1 5 devclrn $end
$var tri1 1 6 devpor $end
$var tri1 1 7 devoe $end
$var wire 1 8 clk~combout $end
$var wire 1 9 clk~clkctrl_outclk $end
$var wire 1 : rst~combout $end
$var wire 1 ; updown~combout $end
$var wire 1 < Q~11_combout $end
$var wire 1 = Q[0]~reg0_regout $end
$var wire 1 > Q[1]~13_cout $end
$var wire 1 ? Q[1]~14_combout $end
$var wire 1 @ ~GND~combout $end
$var wire 1 A Q[1]~15 $end
$var wire 1 B Q[2]~18_combout $end
$var wire 1 C Q[2]~reg0_regout $end
$var wire 1 D Q[2]~19 $end
$var wire 1 E Q[3]~20_combout $end
$var wire 1 F Q[3]~reg0_regout $end
$var wire 1 G Q[0]~16_combout $end
$var wire 1 H Q[0]~17_combout $end
$var wire 1 I Q[1]~reg0_regout $end
$var wire 1 J Mux6~0_combout $end
$var wire 1 K Mux5~0_combout $end
$var wire 1 L Mux4~0_combout $end
$var wire 1 M Mux3~0_combout $end
$var wire 1 N Mux2~0_combout $end
$var wire 1 O Mux1~0_combout $end
$var wire 1 P Mux0~0_combout $end
$upscope $end
$upscope $end
$enddefinitions $end
#0
$dumpvars
0!
bz "
bz #
0$
0%
1,
0+
0*
0)
0(
0'
0&
00
0/
0.
0-
x1
02
13
x4
15
16
17
08
09
0:
0;
1<
0=
0>
0?
0@
1A
0B
0C
0D
0E
0F
1G
0H
0I
1J
0K
0L
0M
0N
0O
0P
$end
#10000
1!
18
19
01
1=
1P
1M
1L
1K
1>
0<
10
1?
1&
1)
1*
1+
#20000
0!
08
09
11
#30000
1!
18
19
01
1I
0=
0P
1N
0M
0L
0J
0A
0?
0>
1<
1/
00
1B
1A
1?
0&
1(
0)
0*
0,
0B
#40000
0!
08
09
11
#50000
1!
18
19
01
1=
0N
1L
1>
0<
10
0A
0?
0(
1*
1B
#60000
0!
08
09
11
#70000
1%
1!
1;
18
19
01
1E
1D
0B
1?
0E
0I
1C
0=
1P
1M
0K
0?
1B
0G
0>
1<
0/
1.
00
1A
1?
1&
1)
0+
0B
#80000
0!
08
09
11
#90000
1!
18
19
01
1I
0C
1=
0P
0M
1K
0A
0?
0D
1B
1G
1>
0<
1/
0.
10
1D
0B
1E
1?
0&
0)
1+
0E
#100000
0!
08
09
11
#110000
1!
18
19
01
0=
1N
0L
0G
0>
1<
00
0?
1(
0*
#120000
0!
08
09
11
#130000
1!
18
19
01
0I
1=
1P
0N
1M
1L
1J
1H
1A
1?
1G
1>
0<
0/
10
0D
1B
0H
0A
0?
1&
0(
1)
1*
1,
1E
1D
0B
0E
#140000
0!
08
09
11
#150000
1!
18
19
01
0=
0P
0M
0L
0K
0G
0>
1<
00
1H
1A
1?
0&
0)
0*
0+
0D
1B
1E
#160000
0!
08
09
11
#170000
1!
18
19
01
1F
1=
1L
0J
1G
0E
1>
0<
1-
10
0H
0A
0?
1*
0,
1D
0B
1E
#180000
0!
08
09
11
#190000
1!
18
19
01
0=
0L
0>
1<
00
1A
1?
0*
0D
1B
0E
#200000
0!
08
09
11
#210000
1!
18
19
01
1I
0F
1C
1=
1M
1L
1K
1J
0A
0?
1E
1D
0B
1>
0<
1/
0-
1.
10
1B
0E
1?
1)
1*
1+
1,
#220000
0!
08
09
11
#230000
1$
1!
1:
18
19
01
1H
1<
0=
1O
0M
0L
0K
0J
0G
0>
00
0?
1'
0)
0*
0+
0,
#240000
0!
08
09
11
#250000
0$
1!
0:
18
19
01
0H
0I
1F
0C
1=
0O
1L
1H
1A
1?
1G
1E
0B
1>
0<
0/
1-
0.
10
0D
1B
0H
0A
0?
0'
1*
0E
1D
0B
1E
#260000
0!
08
09
11
#270000
1!
18
19
01
0=
0L
0>
1<
00
1A
1?
0*
0D
1B
0E
#280000
0!
08
09
11
#290000
1!
18
19
01
1I
0F
1C
1=
1M
1L
1K
1J
0A
0?
1E
1D
0B
1>
0<
1/
0-
1.
10
1B
0E
1?
1)
1*
1+
1,
#300000
0!
08
09
11
#310000
1!
18
19
01
0=
1O
0M
0L
0K
0J
0G
0>
1<
00
0?
1'
0)
0*
0+
0,
#320000
0!
08
09
11
#330000
1!
18
19
01
0I
1=
1L
1A
1?
1G
1>
0<
0/
10
0B
0A
0?
1*
1B
#340000
0!
08
09
11
#350000
1!
18
19
01
0=
1P
0O
1M
0G
0>
1<
00
1A
1?
1&
0'
1)
0B
#360000
0!
08
09
11
#370000
1!
18
19
01
1I
0C
1=
0P
0M
1K
0A
0?
0D
1B
1G
1>
0<
1/
0.
10
1D
0B
1E
1?
0&
0)
1+
0E
#380000
0!
08
09
11
#390000
1!
18
19
01
0=
1N
0L
0G
0>
1<
00
0?
1(
0*
#400000
0!
08
09
11
#410000
1!
18
19
01
0I
1=
1P
0N
1M
1L
1J
1H
1A
1?
1G
1>
0<
0/
10
0D
1B
0H
0A
0?
1&
0(
1)
1*
1,
1E
1D
0B
0E
#420000
0!
08
09
11
#430000
1!
18
19
01
0=
0P
0M
0L
0K
0G
0>
1<
00
1H
1A
1?
0&
0)
0*
0+
0D
1B
1E
#440000
0!
08
09
11
#450000
1!
18
19
01
1F
1=
1L
0J
1G
0E
1>
0<
1-
10
0H
0A
0?
1*
0,
1D
0B
1E
#460000
0!
08
09
11
#470000
1!
18
19
01
0=
0L
0>
1<
00
1A
1?
0*
0D
1B
0E
#480000
0!
08
09
11
#490000
1!
18
19
01
1I
0F
1C
1=
1M
1L
1K
1J
0A
0?
1E
1D
0B
1>
0<
1/
0-
1.
10
1B
0E
1?
1)
1*
1+
1,
#500000
0!
08
09
11
#510000
1!
18
19
01
0=
1O
0M
0L
0K
0J
0G
0>
1<
00
0?
1'
0)
0*
0+
0,
#520000
0!
08
09
11
#530000
1!
18
19
01
0I
1=
1L
1A
1?
1G
1>
0<
0/
10
0B
0A
0?
1*
1B
#540000
0!
08
09
11
#550000
1!
18
19
01
0=
1P
0O
1M
0G
0>
1<
00
1A
1?
1&
0'
1)
0B
#560000
0!
08
09
11
#570000
1!
18
19
01
1I
0C
1=
0P
0M
1K
0A
0?
0D
1B
1G
1>
0<
1/
0.
10
1D
0B
1E
1?
0&
0)
1+
0E
#580000
0!
08
09
11
#590000
1!
18
19
01
0=
1N
0L
0G
0>
1<
00
0?
1(
0*
#600000
0!
08
09
11
#610000
1!
18
19
01
0I
1=
1P
0N
1M
1L
1J
1H
1A
1?
1G
1>
0<
0/
10
0D
1B
0H
0A
0?
1&
0(
1)
1*
1,
1E
1D
0B
0E
#620000
0!
08
09
11
#630000
1!
18
19
01
0=
0P
0M
0L
0K
0G
0>
1<
00
1H
1A
1?
0&
0)
0*
0+
0D
1B
1E
#640000
0!
08
09
11
#650000
1!
18
19
01
1F
1=
1L
0J
1G
0E
1>
0<
1-
10
0H
0A
0?
1*
0,
1D
0B
1E
#660000
0%
0!
0;
08
09
11
0G
0E
0D
1B
1A
1?
1H
1E
0B
#670000
1!
18
19
01
0F
0=
0L
1J
1G
0E
0>
1<
0-
00
0H
0?
0*
1,
#680000
0!
08
09
11
#690000
1!
18
19
01
1=
1P
1M
1L
1K
1>
0<
10
1?
1&
1)
1*
1+
#700000
0!
08
09
11
#710000
1!
18
19
01
1I
0=
0P
1N
0M
0L
0J
0A
0?
0>
1<
1/
00
1B
1A
1?
0&
1(
0)
0*
0,
0B
#720000
0!
08
09
11
#730000
1!
18
19
01
1=
0N
1L
1>
0<
10
0A
0?
0(
1*
1B
#740000
0!
08
09
11
#750000
1!
18
19
01
0I
1C
0=
1P
1M
0K
1A
1?
1D
0B
0>
1<
0/
1.
00
0D
1B
1E
0?
1&
1)
0+
0E
#760000
1$
0!
1:
08
09
11
1H
0<
#770000
1!
18
19
01
0C
0P
0M
0L
1J
0B
0.
0&
0)
0*
1,
#780000
0$
0!
0:
08
09
11
0H
1<
#790000
1!
18
19
01
1=
1P
1M
1L
1K
1>
0<
10
1?
1&
1)
1*
1+
#800000
0!
08
09
11
#810000
1!
18
19
01
1I
0=
0P
1N
0M
0L
0J
0A
0?
0>
1<
1/
00
1B
1A
1?
0&
1(
0)
0*
0,
0B
#820000
0!
08
09
11
#830000
1!
18
19
01
1=
0N
1L
1>
0<
10
0A
0?
0(
1*
1B
#840000
0!
08
09
11
#850000
1!
18
19
01
0I
1C
0=
1P
1M
0K
1A
1?
1D
0B
0>
1<
0/
1.
00
0D
1B
1E
0?
1&
1)
0+
0E
#860000
0!
08
09
11
#870000
1!
18
19
01
1=
0P
1O
0M
1>
0<
10
1?
0&
1'
0)
#880000
0!
08
09
11
#890000
1!
18
19
01
1I
0=
0L
0A
0?
0>
1<
1/
00
1D
0B
1A
1?
0*
1E
0D
1B
0E
#900000
0!
08
09
11
#910000
1!
18
19
01
1=
0O
1M
1L
1K
1J
1>
0<
10
0A
0?
0'
1)
1*
1+
1,
1D
0B
1E
#920000
0!
08
09
11
#930000
1!
18
19
01
0I
1F
0C
0=
0M
0L
0K
0J
1A
1?
0E
0D
1B
0>
1<
0/
1-
0.
00
0B
1E
0?
0)
0*
0+
0,
#940000
0!
08
09
11
#950000
1!
18
19
01
1=
1L
0G
1>
0<
10
1H
1?
1*
#960000
0!
08
09
11
#970000
1!
18
19
01
0F
0=
0L
1J
1G
0E
0>
1<
0-
00
0H
0?
0*
1,
#980000
0!
08
09
11
#990000
1!
18
19
01
1=
1P
1M
1L
1K
1>
0<
10
1?
1&
1)
1*
1+
